simulation/qsim/AES_topo.msim.vcd
$comment
	File created using the following command:
		vcd file AES_topo.msim.vcd -direction
$end
$date
	Sat Oct 12 16:34:17 2019
$end
$version
	ModelSim Version 10.1d
$end
$timescale
	1ps
$end
$scope module AES_topo_vlg_vec_tst $end
$var reg 1 ! clock $end
$var reg 8 " e0 [7:0] $end
$var reg 8 # e1 [7:0] $end
$var reg 8 $ e2 [7:0] $end
$var reg 8 % e3 [7:0] $end
$var reg 8 & e4 [7:0] $end
$var reg 8 ' e5 [7:0] $end
$var reg 8 ( e6 [7:0] $end
$var reg 8 ) e7 [7:0] $end
$var reg 8 * e8 [7:0] $end
$var reg 8 + e9 [7:0] $end
$var reg 8 , e10 [7:0] $end
$var reg 8 - e11 [7:0] $end
$var reg 8 . e12 [7:0] $end
$var reg 8 / e13 [7:0] $end
$var reg 8 0 e14 [7:0] $end
$var reg 8 1 e15 [7:0] $end
$var reg 1 2 En_inputs $end
$var reg 1 3 En_regAddRound $end
$var wire 1 4 outAddRound_view [7] $end
$var wire 1 5 outAddRound_view [6] $end
$var wire 1 6 outAddRound_view [5] $end
$var wire 1 7 outAddRound_view [4] $end
$var wire 1 8 outAddRound_view [3] $end
$var wire 1 9 outAddRound_view [2] $end
$var wire 1 : outAddRound_view [1] $end
$var wire 1 ; outAddRound_view [0] $end
$var wire 1 < outReg0_view [7] $end
$var wire 1 = outReg0_view [6] $end
$var wire 1 > outReg0_view [5] $end
$var wire 1 ? outReg0_view [4] $end
$var wire 1 @ outReg0_view [3] $end
$var wire 1 A outReg0_view [2] $end
$var wire 1 B outReg0_view [1] $end
$var wire 1 C outReg0_view [0] $end
$var wire 1 D outReg1_view [7] $end
$var wire 1 E outReg1_view [6] $end
$var wire 1 F outReg1_view [5] $end
$var wire 1 G outReg1_view [4] $end
$var wire 1 H outReg1_view [3] $end
$var wire 1 I outReg1_view [2] $end
$var wire 1 J outReg1_view [1] $end
$var wire 1 K outReg1_view [0] $end
$var wire 1 L outRegAdd_view [7] $end
$var wire 1 M outRegAdd_view [6] $end
$var wire 1 N outRegAdd_view [5] $end
$var wire 1 O outRegAdd_view [4] $end
$var wire 1 P outRegAdd_view [3] $end
$var wire 1 Q outRegAdd_view [2] $end
$var wire 1 R outRegAdd_view [1] $end
$var wire 1 S outRegAdd_view [0] $end
$var wire 1 T s0 [7] $end
$var wire 1 U s0 [6] $end
$var wire 1 V s0 [5] $end
$var wire 1 W s0 [4] $end
$var wire 1 X s0 [3] $end
$var wire 1 Y s0 [2] $end
$var wire 1 Z s0 [1] $end
$var wire 1 [ s0 [0] $end
$var wire 1 \ s1 [7] $end
$var wire 1 ] s1 [6] $end
$var wire 1 ^ s1 [5] $end
$var wire 1 _ s1 [4] $end
$var wire 1 ` s1 [3] $end
$var wire 1 a s1 [2] $end
$var wire 1 b s1 [1] $end
$var wire 1 c s1 [0] $end
$var wire 1 d s2 [7] $end
$var wire 1 e s2 [6] $end
$var wire 1 f s2 [5] $end
$var wire 1 g s2 [4] $end
$var wire 1 h s2 [3] $end
$var wire 1 i s2 [2] $end
$var wire 1 j s2 [1] $end
$var wire 1 k s2 [0] $end
$var wire 1 l s3 [7] $end
$var wire 1 m s3 [6] $end
$var wire 1 n s3 [5] $end
$var wire 1 o s3 [4] $end
$var wire 1 p s3 [3] $end
$var wire 1 q s3 [2] $end
$var wire 1 r s3 [1] $end
$var wire 1 s s3 [0] $end
$var wire 1 t s4 [7] $end
$var wire 1 u s4 [6] $end
$var wire 1 v s4 [5] $end
$var wire 1 w s4 [4] $end
$var wire 1 x s4 [3] $end
$var wire 1 y s4 [2] $end
$var wire 1 z s4 [1] $end
$var wire 1 { s4 [0] $end
$var wire 1 | s5 [7] $end
$var wire 1 } s5 [6] $end
$var wire 1 ~ s5 [5] $end
$var wire 1 !! s5 [4] $end
$var wire 1 "! s5 [3] $end
$var wire 1 #! s5 [2] $end
$var wire 1 $! s5 [1] $end
$var wire 1 %! s5 [0] $end
$var wire 1 &! s6 [7] $end
$var wire 1 '! s6 [6] $end
$var wire 1 (! s6 [5] $end
$var wire 1 )! s6 [4] $end
$var wire 1 *! s6 [3] $end
$var wire 1 +! s6 [2] $end
$var wire 1 ,! s6 [1] $end
$var wire 1 -! s6 [0] $end
$var wire 1 .! s7 [7] $end
$var wire 1 /! s7 [6] $end
$var wire 1 0! s7 [5] $end
$var wire 1 1! s7 [4] $end
$var wire 1 2! s7 [3] $end
$var wire 1 3! s7 [2] $end
$var wire 1 4! s7 [1] $end
$var wire 1 5! s7 [0] $end
$var wire 1 6! s8 [7] $end
$var wire 1 7! s8 [6] $end
$var wire 1 8! s8 [5] $end
$var wire 1 9! s8 [4] $end
$var wire 1 :! s8 [3] $end
$var wire 1 ;! s8 [2] $end
$var wire 1 <! s8 [1] $end
$var wire 1 =! s8 [0] $end
$var wire 1 >! s9 [7] $end
$var wire 1 ?! s9 [6] $end
$var wire 1 @! s9 [5] $end
$var wire 1 A! s9 [4] $end
$var wire 1 B! s9 [3] $end
$var wire 1 C! s9 [2] $end
$var wire 1 D! s9 [1] $end
$var wire 1 E! s9 [0] $end
$var wire 1 F! s10 [7] $end
$var wire 1 G! s10 [6] $end
$var wire 1 H! s10 [5] $end
$var wire 1 I! s10 [4] $end
$var wire 1 J! s10 [3] $end
$var wire 1 K! s10 [2] $end
$var wire 1 L! s10 [1] $end
$var wire 1 M! s10 [0] $end
$var wire 1 N! s11 [7] $end
$var wire 1 O! s11 [6] $end
$var wire 1 P! s11 [5] $end
$var wire 1 Q! s11 [4] $end
$var wire 1 R! s11 [3] $end
$var wire 1 S! s11 [2] $end
$var wire 1 T! s11 [1] $end
$var wire 1 U! s11 [0] $end
$var wire 1 V! s12 [7] $end
$var wire 1 W! s12 [6] $end
$var wire 1 X! s12 [5] $end
$var wire 1 Y! s12 [4] $end
$var wire 1 Z! s12 [3] $end
$var wire 1 [! s12 [2] $end
$var wire 1 \! s12 [1] $end
$var wire 1 ]! s12 [0] $end
$var wire 1 ^! s13 [7] $end
$var wire 1 _! s13 [6] $end
$var wire 1 `! s13 [5] $end
$var wire 1 a! s13 [4] $end
$var wire 1 b! s13 [3] $end
$var wire 1 c! s13 [2] $end
$var wire 1 d! s13 [1] $end
$var wire 1 e! s13 [0] $end
$var wire 1 f! s14 [7] $end
$var wire 1 g! s14 [6] $end
$var wire 1 h! s14 [5] $end
$var wire 1 i! s14 [4] $end
$var wire 1 j! s14 [3] $end
$var wire 1 k! s14 [2] $end
$var wire 1 l! s14 [1] $end
$var wire 1 m! s14 [0] $end
$var wire 1 n! s15 [7] $end
$var wire 1 o! s15 [6] $end
$var wire 1 p! s15 [5] $end
$var wire 1 q! s15 [4] $end
$var wire 1 r! s15 [3] $end
$var wire 1 s! s15 [2] $end
$var wire 1 t! s15 [1] $end
$var wire 1 u! s15 [0] $end
$var wire 1 v! sampler $end
$scope module i1 $end
$var wire 1 w! gnd $end
$var wire 1 x! vcc $end
$var wire 1 y! unknown $end
$var tri1 1 z! devclrn $end
$var tri1 1 {! devpor $end
$var tri1 1 |! devoe $end
$var wire 1 }! e2[0]~input_o $end
$var wire 1 ~! e2[1]~input_o $end
$var wire 1 !" e2[2]~input_o $end
$var wire 1 "" e2[3]~input_o $end
$var wire 1 #" e2[4]~input_o $end
$var wire 1 $" e2[5]~input_o $end
$var wire 1 %" e2[6]~input_o $end
$var wire 1 &" e2[7]~input_o $end
$var wire 1 '" e3[0]~input_o $end
$var wire 1 (" e3[1]~input_o $end
$var wire 1 )" e3[2]~input_o $end
$var wire 1 *" e3[3]~input_o $end
$var wire 1 +" e3[4]~input_o $end
$var wire 1 ," e3[5]~input_o $end
$var wire 1 -" e3[6]~input_o $end
$var wire 1 ." e3[7]~input_o $end
$var wire 1 /" e4[0]~input_o $end
$var wire 1 0" e4[1]~input_o $end
$var wire 1 1" e4[2]~input_o $end
$var wire 1 2" e4[3]~input_o $end
$var wire 1 3" e4[4]~input_o $end
$var wire 1 4" e4[5]~input_o $end
$var wire 1 5" e4[6]~input_o $end
$var wire 1 6" e4[7]~input_o $end
$var wire 1 7" e5[0]~input_o $end
$var wire 1 8" e5[1]~input_o $end
$var wire 1 9" e5[2]~input_o $end
$var wire 1 :" e5[3]~input_o $end
$var wire 1 ;" e5[4]~input_o $end
$var wire 1 <" e5[5]~input_o $end
$var wire 1 =" e5[6]~input_o $end
$var wire 1 >" e5[7]~input_o $end
$var wire 1 ?" e6[0]~input_o $end
$var wire 1 @" e6[1]~input_o $end
$var wire 1 A" e6[2]~input_o $end
$var wire 1 B" e6[3]~input_o $end
$var wire 1 C" e6[4]~input_o $end
$var wire 1 D" e6[5]~input_o $end
$var wire 1 E" e6[6]~input_o $end
$var wire 1 F" e6[7]~input_o $end
$var wire 1 G" e7[0]~input_o $end
$var wire 1 H" e7[1]~input_o $end
$var wire 1 I" e7[2]~input_o $end
$var wire 1 J" e7[3]~input_o $end
$var wire 1 K" e7[4]~input_o $end
$var wire 1 L" e7[5]~input_o $end
$var wire 1 M" e7[6]~input_o $end
$var wire 1 N" e7[7]~input_o $end
$var wire 1 O" e8[0]~input_o $end
$var wire 1 P" e8[1]~input_o $end
$var wire 1 Q" e8[2]~input_o $end
$var wire 1 R" e8[3]~input_o $end
$var wire 1 S" e8[4]~input_o $end
$var wire 1 T" e8[5]~input_o $end
$var wire 1 U" e8[6]~input_o $end
$var wire 1 V" e8[7]~input_o $end
$var wire 1 W" e9[0]~input_o $end
$var wire 1 X" e9[1]~input_o $end
$var wire 1 Y" e9[2]~input_o $end
$var wire 1 Z" e9[3]~input_o $end
$var wire 1 [" e9[4]~input_o $end
$var wire 1 \" e9[5]~input_o $end
$var wire 1 ]" e9[6]~input_o $end
$var wire 1 ^" e9[7]~input_o $end
$var wire 1 _" e10[0]~input_o $end
$var wire 1 `" e10[1]~input_o $end
$var wire 1 a" e10[2]~input_o $end
$var wire 1 b" e10[3]~input_o $end
$var wire 1 c" e10[4]~input_o $end
$var wire 1 d" e10[5]~input_o $end
$var wire 1 e" e10[6]~input_o $end
$var wire 1 f" e10[7]~input_o $end
$var wire 1 g" e11[0]~input_o $end
$var wire 1 h" e11[1]~input_o $end
$var wire 1 i" e11[2]~input_o $end
$var wire 1 j" e11[3]~input_o $end
$var wire 1 k" e11[4]~input_o $end
$var wire 1 l" e11[5]~input_o $end
$var wire 1 m" e11[6]~input_o $end
$var wire 1 n" e11[7]~input_o $end
$var wire 1 o" e12[0]~input_o $end
$var wire 1 p" e12[1]~input_o $end
$var wire 1 q" e12[2]~input_o $end
$var wire 1 r" e12[3]~input_o $end
$var wire 1 s" e12[4]~input_o $end
$var wire 1 t" e12[5]~input_o $end
$var wire 1 u" e12[6]~input_o $end
$var wire 1 v" e12[7]~input_o $end
$var wire 1 w" e13[0]~input_o $end
$var wire 1 x" e13[1]~input_o $end
$var wire 1 y" e13[2]~input_o $end
$var wire 1 z" e13[3]~input_o $end
$var wire 1 {" e13[4]~input_o $end
$var wire 1 |" e13[5]~input_o $end
$var wire 1 }" e13[6]~input_o $end
$var wire 1 ~" e13[7]~input_o $end
$var wire 1 !# e14[0]~input_o $end
$var wire 1 "# e14[1]~input_o $end
$var wire 1 ## e14[2]~input_o $end
$var wire 1 $# e14[3]~input_o $end
$var wire 1 %# e14[4]~input_o $end
$var wire 1 &# e14[5]~input_o $end
$var wire 1 '# e14[6]~input_o $end
$var wire 1 (# e14[7]~input_o $end
$var wire 1 )# e15[0]~input_o $end
$var wire 1 *# e15[1]~input_o $end
$var wire 1 +# e15[2]~input_o $end
$var wire 1 ,# e15[3]~input_o $end
$var wire 1 -# e15[4]~input_o $end
$var wire 1 .# e15[5]~input_o $end
$var wire 1 /# e15[6]~input_o $end
$var wire 1 0# e15[7]~input_o $end
$var wire 1 1# s0[0]~output_o $end
$var wire 1 2# s0[1]~output_o $end
$var wire 1 3# s0[2]~output_o $end
$var wire 1 4# s0[3]~output_o $end
$var wire 1 5# s0[4]~output_o $end
$var wire 1 6# s0[5]~output_o $end
$var wire 1 7# s0[6]~output_o $end
$var wire 1 8# s0[7]~output_o $end
$var wire 1 9# s1[0]~output_o $end
$var wire 1 :# s1[1]~output_o $end
$var wire 1 ;# s1[2]~output_o $end
$var wire 1 <# s1[3]~output_o $end
$var wire 1 =# s1[4]~output_o $end
$var wire 1 ># s1[5]~output_o $end
$var wire 1 ?# s1[6]~output_o $end
$var wire 1 @# s1[7]~output_o $end
$var wire 1 A# s2[0]~output_o $end
$var wire 1 B# s2[1]~output_o $end
$var wire 1 C# s2[2]~output_o $end
$var wire 1 D# s2[3]~output_o $end
$var wire 1 E# s2[4]~output_o $end
$var wire 1 F# s2[5]~output_o $end
$var wire 1 G# s2[6]~output_o $end
$var wire 1 H# s2[7]~output_o $end
$var wire 1 I# s3[0]~output_o $end
$var wire 1 J# s3[1]~output_o $end
$var wire 1 K# s3[2]~output_o $end
$var wire 1 L# s3[3]~output_o $end
$var wire 1 M# s3[4]~output_o $end
$var wire 1 N# s3[5]~output_o $end
$var wire 1 O# s3[6]~output_o $end
$var wire 1 P# s3[7]~output_o $end
$var wire 1 Q# s4[0]~output_o $end
$var wire 1 R# s4[1]~output_o $end
$var wire 1 S# s4[2]~output_o $end
$var wire 1 T# s4[3]~output_o $end
$var wire 1 U# s4[4]~output_o $end
$var wire 1 V# s4[5]~output_o $end
$var wire 1 W# s4[6]~output_o $end
$var wire 1 X# s4[7]~output_o $end
$var wire 1 Y# s5[0]~output_o $end
$var wire 1 Z# s5[1]~output_o $end
$var wire 1 [# s5[2]~output_o $end
$var wire 1 \# s5[3]~output_o $end
$var wire 1 ]# s5[4]~output_o $end
$var wire 1 ^# s5[5]~output_o $end
$var wire 1 _# s5[6]~output_o $end
$var wire 1 `# s5[7]~output_o $end
$var wire 1 a# s6[0]~output_o $end
$var wire 1 b# s6[1]~output_o $end
$var wire 1 c# s6[2]~output_o $end
$var wire 1 d# s6[3]~output_o $end
$var wire 1 e# s6[4]~output_o $end
$var wire 1 f# s6[5]~output_o $end
$var wire 1 g# s6[6]~output_o $end
$var wire 1 h# s6[7]~output_o $end
$var wire 1 i# s7[0]~output_o $end
$var wire 1 j# s7[1]~output_o $end
$var wire 1 k# s7[2]~output_o $end
$var wire 1 l# s7[3]~output_o $end
$var wire 1 m# s7[4]~output_o $end
$var wire 1 n# s7[5]~output_o $end
$var wire 1 o# s7[6]~output_o $end
$var wire 1 p# s7[7]~output_o $end
$var wire 1 q# s8[0]~output_o $end
$var wire 1 r# s8[1]~output_o $end
$var wire 1 s# s8[2]~output_o $end
$var wire 1 t# s8[3]~output_o $end
$var wire 1 u# s8[4]~output_o $end
$var wire 1 v# s8[5]~output_o $end
$var wire 1 w# s8[6]~output_o $end
$var wire 1 x# s8[7]~output_o $end
$var wire 1 y# s9[0]~output_o $end
$var wire 1 z# s9[1]~output_o $end
$var wire 1 {# s9[2]~output_o $end
$var wire 1 |# s9[3]~output_o $end
$var wire 1 }# s9[4]~output_o $end
$var wire 1 ~# s9[5]~output_o $end
$var wire 1 !$ s9[6]~output_o $end
$var wire 1 "$ s9[7]~output_o $end
$var wire 1 #$ s10[0]~output_o $end
$var wire 1 $$ s10[1]~output_o $end
$var wire 1 %$ s10[2]~output_o $end
$var wire 1 &$ s10[3]~output_o $end
$var wire 1 '$ s10[4]~output_o $end
$var wire 1 ($ s10[5]~output_o $end
$var wire 1 )$ s10[6]~output_o $end
$var wire 1 *$ s10[7]~output_o $end
$var wire 1 +$ s11[0]~output_o $end
$var wire 1 ,$ s11[1]~output_o $end
$var wire 1 -$ s11[2]~output_o $end
$var wire 1 .$ s11[3]~output_o $end
$var wire 1 /$ s11[4]~output_o $end
$var wire 1 0$ s11[5]~output_o $end
$var wire 1 1$ s11[6]~output_o $end
$var wire 1 2$ s11[7]~output_o $end
$var wire 1 3$ s12[0]~output_o $end
$var wire 1 4$ s12[1]~output_o $end
$var wire 1 5$ s12[2]~output_o $end
$var wire 1 6$ s12[3]~output_o $end
$var wire 1 7$ s12[4]~output_o $end
$var wire 1 8$ s12[5]~output_o $end
$var wire 1 9$ s12[6]~output_o $end
$var wire 1 :$ s12[7]~output_o $end
$var wire 1 ;$ s13[0]~output_o $end
$var wire 1 <$ s13[1]~output_o $end
$var wire 1 =$ s13[2]~output_o $end
$var wire 1 >$ s13[3]~output_o $end
$var wire 1 ?$ s13[4]~output_o $end
$var wire 1 @$ s13[5]~output_o $end
$var wire 1 A$ s13[6]~output_o $end
$var wire 1 B$ s13[7]~output_o $end
$var wire 1 C$ s14[0]~output_o $end
$var wire 1 D$ s14[1]~output_o $end
$var wire 1 E$ s14[2]~output_o $end
$var wire 1 F$ s14[3]~output_o $end
$var wire 1 G$ s14[4]~output_o $end
$var wire 1 H$ s14[5]~output_o $end
$var wire 1 I$ s14[6]~output_o $end
$var wire 1 J$ s14[7]~output_o $end
$var wire 1 K$ s15[0]~output_o $end
$var wire 1 L$ s15[1]~output_o $end
$var wire 1 M$ s15[2]~output_o $end
$var wire 1 N$ s15[3]~output_o $end
$var wire 1 O$ s15[4]~output_o $end
$var wire 1 P$ s15[5]~output_o $end
$var wire 1 Q$ s15[6]~output_o $end
$var wire 1 R$ s15[7]~output_o $end
$var wire 1 S$ outAddRound_view[0]~output_o $end
$var wire 1 T$ outAddRound_view[1]~output_o $end
$var wire 1 U$ outAddRound_view[2]~output_o $end
$var wire 1 V$ outAddRound_view[3]~output_o $end
$var wire 1 W$ outAddRound_view[4]~output_o $end
$var wire 1 X$ outAddRound_view[5]~output_o $end
$var wire 1 Y$ outAddRound_view[6]~output_o $end
$var wire 1 Z$ outAddRound_view[7]~output_o $end
$var wire 1 [$ outReg0_view[0]~output_o $end
$var wire 1 \$ outReg0_view[1]~output_o $end
$var wire 1 ]$ outReg0_view[2]~output_o $end
$var wire 1 ^$ outReg0_view[3]~output_o $end
$var wire 1 _$ outReg0_view[4]~output_o $end
$var wire 1 `$ outReg0_view[5]~output_o $end
$var wire 1 a$ outReg0_view[6]~output_o $end
$var wire 1 b$ outReg0_view[7]~output_o $end
$var wire 1 c$ outReg1_view[0]~output_o $end
$var wire 1 d$ outReg1_view[1]~output_o $end
$var wire 1 e$ outReg1_view[2]~output_o $end
$var wire 1 f$ outReg1_view[3]~output_o $end
$var wire 1 g$ outReg1_view[4]~output_o $end
$var wire 1 h$ outReg1_view[5]~output_o $end
$var wire 1 i$ outReg1_view[6]~output_o $end
$var wire 1 j$ outReg1_view[7]~output_o $end
$var wire 1 k$ outRegAdd_view[0]~output_o $end
$var wire 1 l$ outRegAdd_view[1]~output_o $end
$var wire 1 m$ outRegAdd_view[2]~output_o $end
$var wire 1 n$ outRegAdd_view[3]~output_o $end
$var wire 1 o$ outRegAdd_view[4]~output_o $end
$var wire 1 p$ outRegAdd_view[5]~output_o $end
$var wire 1 q$ outRegAdd_view[6]~output_o $end
$var wire 1 r$ outRegAdd_view[7]~output_o $end
$var wire 1 s$ e0[0]~input_o $end
$var wire 1 t$ En_inputs~input_o $end
$var wire 1 u$ e1[0]~input_o $end
$var wire 1 v$ e0[1]~input_o $end
$var wire 1 w$ e1[1]~input_o $end
$var wire 1 x$ e0[2]~input_o $end
$var wire 1 y$ e1[2]~input_o $end
$var wire 1 z$ e0[3]~input_o $end
$var wire 1 {$ e1[3]~input_o $end
$var wire 1 |$ e0[4]~input_o $end
$var wire 1 }$ e1[4]~input_o $end
$var wire 1 ~$ e0[5]~input_o $end
$var wire 1 !% e1[5]~input_o $end
$var wire 1 "% e0[6]~input_o $end
$var wire 1 #% e1[6]~input_o $end
$var wire 1 $% e0[7]~input_o $end
$var wire 1 %% e1[7]~input_o $end
$var wire 1 &% clock~input_o $end
$var wire 1 '% En_regAddRound~input_o $end
$var wire 1 (% registradorR0|q [7] $end
$var wire 1 )% registradorR0|q [6] $end
$var wire 1 *% registradorR0|q [5] $end
$var wire 1 +% registradorR0|q [4] $end
$var wire 1 ,% registradorR0|q [3] $end
$var wire 1 -% registradorR0|q [2] $end
$var wire 1 .% registradorR0|q [1] $end
$var wire 1 /% registradorR0|q [0] $end
$var wire 1 0% registradorAdd|q [7] $end
$var wire 1 1% registradorAdd|q [6] $end
$var wire 1 2% registradorAdd|q [5] $end
$var wire 1 3% registradorAdd|q [4] $end
$var wire 1 4% registradorAdd|q [3] $end
$var wire 1 5% registradorAdd|q [2] $end
$var wire 1 6% registradorAdd|q [1] $end
$var wire 1 7% registradorAdd|q [0] $end
$var wire 1 8% Add|resultado [7] $end
$var wire 1 9% Add|resultado [6] $end
$var wire 1 :% Add|resultado [5] $end
$var wire 1 ;% Add|resultado [4] $end
$var wire 1 <% Add|resultado [3] $end
$var wire 1 =% Add|resultado [2] $end
$var wire 1 >% Add|resultado [1] $end
$var wire 1 ?% Add|resultado [0] $end
$var wire 1 @% registradorR1|q [7] $end
$var wire 1 A% registradorR1|q [6] $end
$var wire 1 B% registradorR1|q [5] $end
$var wire 1 C% registradorR1|q [4] $end
$var wire 1 D% registradorR1|q [3] $end
$var wire 1 E% registradorR1|q [2] $end
$var wire 1 F% registradorR1|q [1] $end
$var wire 1 G% registradorR1|q [0] $end
$upscope $end
$upscope $end
$enddefinitions $end
#0
$dumpvars
0!
b1 "
b10 #
bx $
bx %
bx &
bx '
bx (
bx )
bx *
bx +
bx ,
bx -
bx .
bx /
bx 0
bx 1
02
x3
0;
0:
09
08
07
06
05
04
0C
0B
0A
0@
0?
0>
0=
0<
0K
0J
0I
0H
0G
0F
0E
0D
0S
0R
0Q
0P
0O
0N
0M
0L
0[
0Z
0Y
0X
0W
0V
0U
0T
0c
0b
0a
0`
0_
0^
0]
0\
0k
0j
0i
0h
0g
0f
0e
0d
0s
0r
0q
0p
0o
0n
0m
0l
0{
0z
0y
0x
0w
0v
0u
0t
0%!
0$!
0#!
0"!
0!!
0~
0}
0|
0-!
0,!
0+!
0*!
0)!
0(!
0'!
0&!
05!
04!
03!
02!
01!
00!
0/!
0.!
0=!
0<!
0;!
0:!
09!
08!
07!
06!
0E!
0D!
0C!
0B!
0A!
0@!
0?!
0>!
0M!
0L!
0K!
0J!
0I!
0H!
0G!
0F!
0U!
0T!
0S!
0R!
0Q!
0P!
0O!
0N!
0]!
0\!
0[!
0Z!
0Y!
0X!
0W!
0V!
0e!
0d!
0c!
0b!
0a!
0`!
0_!
0^!
0m!
0l!
0k!
0j!
0i!
0h!
0g!
0f!
0u!
0t!
0s!
0r!
0q!
0p!
0o!
0n!
xv!
0w!
1x!
xy!
1z!
1{!
1|!
x}!
x~!
x!"
x""
x#"
x$"
x%"
x&"
x'"
x("
x)"
x*"
x+"
x,"
x-"
x."
x/"
x0"
x1"
x2"
x3"
x4"
x5"
x6"
x7"
x8"
x9"
x:"
x;"
x<"
x="
x>"
x?"
x@"
xA"
xB"
xC"
xD"
xE"
xF"
xG"
xH"
xI"
xJ"
xK"
xL"
xM"
xN"
xO"
xP"
xQ"
xR"
xS"
xT"
xU"
xV"
xW"
xX"
xY"
xZ"
x["
x\"
x]"
x^"
x_"
x`"
xa"
xb"
xc"
xd"
xe"
xf"
xg"
xh"
xi"
xj"
xk"
xl"
xm"
xn"
xo"
xp"
xq"
xr"
xs"
xt"
xu"
xv"
xw"
xx"
xy"
xz"
x{"
x|"
x}"
x~"
x!#
x"#
x##
x$#
x%#
x&#
x'#
x(#
x)#
x*#
x+#
x,#
x-#
x.#
x/#
x0#
01#
02#
03#
04#
05#
06#
07#
08#
09#
0:#
0;#
0<#
0=#
0>#
0?#
0@#
0A#
0B#
0C#
0D#
0E#
0F#
0G#
0H#
0I#
0J#
0K#
0L#
0M#
0N#
0O#
0P#
0Q#
0R#
0S#
0T#
0U#
0V#
0W#
0X#
0Y#
0Z#
0[#
0\#
0]#
0^#
0_#
0`#
0a#
0b#
0c#
0d#
0e#
0f#
0g#
0h#
0i#
0j#
0k#
0l#
0m#
0n#
0o#
0p#
0q#
0r#
0s#
0t#
0u#
0v#
0w#
0x#
0y#
0z#
0{#
0|#
0}#
0~#
0!$
0"$
0#$
0$$
0%$
0&$
0'$
0($
0)$
0*$
0+$
0,$
0-$
0.$
0/$
00$
01$
02$
03$
04$
05$
06$
07$
08$
09$
0:$
0;$
0<$
0=$
0>$
0?$
0@$
0A$
0B$
0C$
0D$
0E$
0F$
0G$
0H$
0I$
0J$
0K$
0L$
0M$
0N$
0O$
0P$
0Q$
0R$
0S$
0T$
0U$
0V$
0W$
0X$
0Y$
0Z$
0[$
0\$
0]$
0^$
0_$
0`$
0a$
0b$
0c$
0d$
0e$
0f$
0g$
0h$
0i$
0j$
0k$
0l$
0m$
0n$
0o$
0p$
0q$
0r$
1s$
0t$
0u$
0v$
1w$
0x$
0y$
0z$
0{$
0|$
0}$
0~$
0!%
0"%
0#%
0$%
0%%
0&%
x'%
0/%
0.%
0-%
0,%
0+%
0*%
0)%
0(%
07%
06%
05%
04%
03%
02%
01%
00%
0?%
0>%
0=%
0<%
0;%
0:%
09%
08%
0G%
0F%
0E%
0D%
0C%
0B%
0A%
0@%
$end
#25000
1!
1&%
0v!
#40000
12
1t$
1v!
#50000
0!
0&%
0v!
#75000
1!
1&%
1v!
1F%
1/%
1d$
1[$
1J
1C
1>%
1?%
1T$
1S$
1:
1;
#90000
13
02
1'%
0t$
0v!
#100000
0!
0&%
1v!
#125000
1!
1&%
0v!
16%
17%
1l$
1k$
1R
1S
#150000
0!
0&%
1v!
#175000
1!
1&%
0v!
#200000
0!
0&%
1v!
#225000
1!
1&%
0v!
#250000
0!
0&%
1v!
#275000
1!
1&%
0v!
#300000
0!
0&%
1v!
#325000
1!
1&%
0v!
#350000
0!
0&%
1v!
#375000
1!
1&%
0v!
#400000
0!
0&%
1v!
#425000
1!
1&%
0v!
#450000
0!
0&%
1v!
#475000
1!
1&%
0v!
#500000
0!
0&%
1v!
#525000
1!
1&%
0v!
#550000
0!
0&%
1v!
#575000
1!
1&%
0v!
#600000
0!
0&%
1v!
#625000
1!
1&%
0v!
#650000
0!
0&%
1v!
#675000
1!
1&%
0v!
#700000
0!
0&%
1v!
#725000
1!
1&%
0v!
#750000
0!
0&%
1v!
#775000
1!
1&%
0v!
#800000
0!
0&%
1v!
#825000
1!
1&%
0v!
#850000
0!
0&%
1v!
#875000
1!
1&%
0v!
#900000
0!
0&%
1v!
#925000
1!
1&%
0v!
#950000
0!
0&%
1v!
#975000
1!
1&%
0v!
